\relax 
\providecommand\hyper@newdestlabel[2]{}
\providecommand\HyperFirstAtBeginDocument{\AtBeginDocument}
\HyperFirstAtBeginDocument{\ifx\hyper@anchor\@undefined
\global\let\oldcontentsline\contentsline
\gdef\contentsline#1#2#3#4{\oldcontentsline{#1}{#2}{#3}}
\global\let\oldnewlabel\newlabel
\gdef\newlabel#1#2{\newlabelxx{#1}#2}
\gdef\newlabelxx#1#2#3#4#5#6{\oldnewlabel{#1}{{#2}{#3}}}
\AtEndDocument{\ifx\hyper@anchor\@undefined
\let\contentsline\oldcontentsline
\let\newlabel\oldnewlabel
\fi}
\fi}
\global\let\hyper@last\relax 
\gdef\HyperFirstAtBeginDocument#1{#1}
\providecommand\HyField@AuxAddToFields[1]{}
\providecommand\HyField@AuxAddToCoFields[2]{}
\@writefile{toc}{\contentsline {section}{\numberline {1}Question (1) a/b}{1}{section.1}}
\newlabel{eq_tplanet}{{3}{1}{Question (1) a/b}{equation.1.3}{}}
\@writefile{lof}{\contentsline {figure}{\numberline {1}{\ignorespaces Temperature}}{2}{figure.1}}
\newlabel{fig_tplanet}{{1}{2}{Temperature}{figure.1}{}}
\@writefile{toc}{\contentsline {section}{\numberline {2}Question (1) c}{2}{section.2}}
\@writefile{lof}{\contentsline {figure}{\numberline {2}{\ignorespaces Temperature}}{3}{figure.2}}
\newlabel{fig_earth}{{2}{3}{Temperature}{figure.2}{}}
\@writefile{toc}{\contentsline {section}{\numberline {3}Question (2) a/b}{3}{section.3}}
\newlabel{eq_ts}{{6}{3}{Question (2) a/b}{equation.3.6}{}}
\@writefile{lof}{\contentsline {figure}{\numberline {3}{\ignorespaces earth's temperature for varying values of the atmospheric emissivity $\epsilon $.}}{4}{figure.3}}
\newlabel{fig_2a}{{3}{4}{earth's temperature for varying values of the atmospheric emissivity $\epsilon $}{figure.3}{}}
\@writefile{lof}{\contentsline {figure}{\numberline {4}{\ignorespaces Temperature}}{4}{figure.4}}
\newlabel{fig_2b}{{4}{4}{Temperature}{figure.4}{}}
\@writefile{lof}{\contentsline {figure}{\numberline {5}{\ignorespaces Temperature}}{5}{figure.5}}
\newlabel{fig_2ab}{{5}{5}{Temperature}{figure.5}{}}
\@writefile{toc}{\contentsline {section}{\numberline {4}Question (2) c}{5}{section.4}}
\newlabel{eq_epsilon}{{9}{5}{Question (2) c}{equation.4.9}{}}
\newlabel{eq_alpha_a}{{10}{5}{Question (2) c}{equation.4.10}{}}
\newlabel{eq_alpha_b}{{11}{5}{Question (2) c}{equation.4.11}{}}
\@writefile{toc}{\contentsline {section}{\numberline {5}Question (3) a}{6}{section.5}}
\@writefile{toc}{\contentsline {section}{\numberline {6}Question (3) b}{6}{section.6}}
\newlabel{eq_q}{{12}{6}{Question (3) b}{equation.6.12}{}}
\newlabel{eq_m}{{13}{6}{Question (3) b}{equation.6.13}{}}
\newlabel{eq_v}{{14}{6}{Question (3) b}{equation.6.14}{}}
\newlabel{eq_h}{{15}{6}{Question (3) b}{equation.6.15}{}}
\@writefile{toc}{\contentsline {section}{\numberline {7}Question (3) c}{6}{section.7}}
\citation{hansen2011earths}
\citation{hansen2011earths}
\@writefile{toc}{\contentsline {section}{\numberline {8}Question (3) d}{7}{section.8}}
\@writefile{toc}{\contentsline {section}{\numberline {9}Question (3) e}{7}{section.9}}
\@writefile{toc}{\contentsline {section}{\numberline {10}Question (4)}{7}{section.10}}
\@writefile{toc}{\contentsline {paragraph}{Considering the whole ocean:}{7}{section*.1}}
\citation{hansen2011earths}
\@writefile{toc}{\contentsline {paragraph}{Considering only the mixed layer:}{8}{section*.2}}
\@writefile{toc}{\contentsline {section}{\numberline {A}Source code}{9}{appendix.A}}
\@writefile{toc}{\contentsline {subsection}{\numberline {A.1}question 1}{9}{subsection.A.1}}
\@writefile{lol}{\contentsline {lstlisting}{../question\textunderscore 01.py}{9}{lstlisting.-1}}
\@writefile{toc}{\contentsline {subsection}{\numberline {A.2}question 2 a/b}{9}{subsection.A.2}}
\@writefile{lol}{\contentsline {lstlisting}{../question\textunderscore 02ab.py}{9}{lstlisting.-2}}
\@writefile{toc}{\contentsline {subsection}{\numberline {A.3}question 2 c}{10}{subsection.A.3}}
\@writefile{lol}{\contentsline {lstlisting}{../question\textunderscore 02c.py}{10}{lstlisting.-3}}
\@writefile{toc}{\contentsline {subsection}{\numberline {A.4}question 3d}{10}{subsection.A.4}}
\bibstyle{plain}
\bibdata{../../literature/literature}
\bibcite{hansen2011earths}{{1}{}{{}}{{}}}
\providecommand\NAT@force@numbers{}\NAT@force@numbers
\@writefile{lol}{\contentsline {lstlisting}{../question\textunderscore 03d.py}{11}{lstlisting.-4}}
\@writefile{toc}{\contentsline {subsection}{\numberline {A.5}question 4}{11}{subsection.A.5}}
\@writefile{lol}{\contentsline {lstlisting}{../question\textunderscore 04.py}{11}{lstlisting.-5}}
